Division,WeightClassKg,Place,Name,Team,BodyweightKg,Best3SquatKg,Best3BenchKg,Best3DeadliftKg,TotalKg,Equipment,Event,Sex
Boys,51.71,1,Miguel Hernandez,Emory Rains,51.44,161.03,92.99,151.95,405.97,Single-ply,SBD,M
Boys,55.79,2,Aaron Johnson #14,Jefferson,51.89,124.74,74.84,140.61,340.19,Single-ply,SBD,M
Boys,51.71,3,Lance Stoker,Marshall,49.62,102.06,72.57,136.08,310.71,Single-ply,SBD,M
Boys,51.71,4,Dylan Simmons,Emory Rains,51.62,117.93,54.43,113.4,285.76,Single-ply,SBD,M
Boys,51.71,5,Jesse Peacock,Diana New Diana,47.99,83.91,63.5,99.79,247.21,Single-ply,SBD,M
Boys,55.79,1,Mathew Solomon,Texarkana Liberty-Eylau,54.88,172.37,92.99,163.29,428.64,Single-ply,SBD,M
Boys,59.87,2,Blake McCann,Gladewater Sabine,55.97,136.08,77.11,170.1,383.29,Single-ply,SBD,M
Boys,55.79,3,Brandon Nettles,Texarkana Liberty-Eylau,55.79,131.54,104.33,145.15,381.02,Single-ply,SBD,M
Boys,55.79,4,Mitchell Roberts,Texarkana Pleasant Grove,55.7,142.88,81.65,154.22,378.75,Single-ply,SBD,M
Boys,55.79,5,McKenzie Davis,Texarkana Liberty-Eylau,55.79,151.95,79.38,127.01,358.34,Single-ply,SBD,M
Boys,55.79,6,Mah Hahn,Texarkana Pleasant Grove,55.7,131.54,65.77,145.15,342.46,Single-ply,SBD,M
Boys,55.79,7,Daniel Pafford,Cushing,53.52,142.88,61.23,127.01,331.12,Single-ply,SBD,M
Boys,55.79,8,Marcus Pierotek,Longview Pine Tree,54.98,124.74,74.84,127.01,326.59,Single-ply,SBD,M
Boys,55.79,9,Matt Reed,Redwater,53.8,120.2,68.04,136.08,324.32,Single-ply,SBD,M
Boys,55.79,10,Jake Rasberry,Troup,55.34,117.93,58.97,115.67,292.57,Single-ply,SBD,M
Boys,55.79,11,Jackson Kennedy,Redwater,52.62,102.06,61.23,92.99,256.28,Single-ply,SBD,M
Boys,55.79,DQ,Jakovan Williams,Nacogdoches,54.7,,,,,Single-ply,SBD,M
Boys,59.87,1,Christian Fisk,Longview Pine Tree,59.78,167.83,79.38,158.76,405.97,Single-ply,SBD,M
Boys,67.13,2,Chase Arras,Texarkana Liberty-Eylau,60.06,147.42,86.18,156.49,390.09,Single-ply,SBD,M
Boys,59.87,3,Camron King,Marshall,56.25,170.1,68.04,142.88,381.02,Single-ply,SBD,M
Boys,67.13,4,Miles Pearson,Diana New Diana,60.1,136.08,81.65,161.03,378.75,Single-ply,SBD,M
Boys,59.87,5,Caleb Bush,Elysian Fields,56.52,131.54,74.84,140.61,347,Single-ply,SBD,M
Boys,59.87,6,Sergio Camacho,Emory Rains,59.51,129.27,63.5,136.08,328.85,Single-ply,SBD,M
Boys,59.87,7,Hunter Miller,Bullard,58.79,129.27,61.23,122.47,312.98,Single-ply,SBD,M
Boys,59.87,8,Garrett Weems,Emory Rains,56.43,117.93,68.04,124.74,310.71,Single-ply,SBD,M
Boys,59.87,9,David Blackwell,Nacogdoches,56.43,127.01,54.43,124.74,306.17,Single-ply,SBD,M
Boys,59.87,10,Tyler Smigile,Diana New Diana,58.33,92.99,77.11,117.93,288.03,Single-ply,SBD,M
Boys,67.13,1,Rod Howard,Texarkana Liberty-Eylau,65.23,192.78,117.93,190.51,501.22,Single-ply,SBD,M
Boys,67.13,2,Justin Johnson,Mount Enterprise,62.96,190.51,99.79,188.24,478.54,Single-ply,SBD,M
Boys,67.13,3,Javonte Parker,Marshall,64.77,185.97,92.99,195.04,474,Single-ply,SBD,M
Boys,67.13,4,Justin Vanderwater,Laird Hill Leveretts Chapel,62.32,176.9,108.86,179.17,464.93,Single-ply,SBD,M
Boys,67.13,5,JarMarkus Boyd,Ore City,60.87,167.83,113.4,176.9,458.13,Single-ply,SBD,M
Boys,67.13,6,Juan Mendez,Emory Rains,60.87,149.69,106.59,195.04,451.32,Single-ply,SBD,M
Boys,67.13,7,Corvell Marshall,Longview Pine Tree,66.13,158.76,102.06,183.7,444.52,Single-ply,SBD,M
Boys,74.84,8,Christian Allison,Carthage,67.36,165.56,104.33,174.63,444.52,Single-ply,SBD,M
Boys,67.13,9,Ja'Vontay Williams,Nacogdoches,60.33,183.7,79.38,158.76,421.84,Single-ply,SBD,M
Boys,67.13,10,Jaden Whitely,Nacogdoches,63.32,151.95,79.38,165.56,396.89,Single-ply,SBD,M
Boys,67.13,11,Jarred Scott,Texarkana Pleasant Grove,60.78,154.22,74.84,154.22,383.29,Single-ply,SBD,M
Boys,67.13,12,Trenton Burke,Troup,62.14,151.95,79.38,140.61,371.95,Single-ply,SBD,M
Boys,74.84,13,Lane Croft,White Oak,67.36,129.27,61.23,136.08,326.59,Single-ply,SBD,M
Boys,67.13,14,Hunter Bell,Redwater,60.6,115.67,79.38,124.74,319.78,Single-ply,SBD,M
Boys,74.84,15,Cody Presson,White Oak,67.36,113.4,52.16,138.35,303.91,Single-ply,SBD,M
Boys,67.13,16,Austin Taliaferro,Gladewater Sabine,60.69,111.13,65.77,124.74,301.64,Single-ply,SBD,M
Boys,67.13,17,Austin Iske,White Oak,65.59,102.06,65.77,129.27,297.1,Single-ply,SBD,M
Boys,74.84,18,Noah Van Blarcum,White Oak,67.36,111.13,56.7,127.01,294.84,Single-ply,SBD,M
Boys,67.13,19,Jessie Reeves,White Oak,67.13,154.22,88.45,,242.67,Single-ply,SB,M
Boys,67.13,20,Kenneth Buffin,Longview Pine Tree,64.86,170.1,,,170.1,Single-ply,S,M
Boys,74.84,21,Corey Bonner,Troup,67.22,129.27,,,129.27,Single-ply,S,M
Boys,67.13,DQ,Zach Tollett,Troup,62.69,,,,,Single-ply,S,M
Boys,67.13,DQ,Brandon Small,White Oak,67.13,,,,,Single-ply,S,M
Boys,82.1,1,Herold Carter,Texarkana Liberty-Eylau,74.93,226.8,142.88,222.26,591.94,Single-ply,SBD,M
Boys,74.84,2,Jesse Hudson #1,Emory Rains,73.12,233.6,120.2,235.87,589.67,Single-ply,SBD,M
Boys,74.84,3,Dk Calloway,Carthage,67.59,217.72,120.2,229.06,566.99,Single-ply,SBD,M
Boys,74.84,4,Jacovin Coats,Marshall,72.57,204.12,106.59,226.8,537.51,Single-ply,SBD,M
Boys,74.84,5,Cory Davis,Ore City,68.58,215.46,113.4,201.85,530.7,Single-ply,SBD,M
Boys,74.84,6,Austin Skelton,Bullard,74.84,183.7,115.67,210.92,510.29,Single-ply,SBD,M
Boys,74.84,7,Quade Taliaferro,Gladewater Sabine,70.76,185.97,106.59,204.12,496.68,Single-ply,SBD,M
Boys,74.84,8,Matthew Morris,Laird Hill Leveretts Chapel,72.57,199.58,102.06,192.78,494.42,Single-ply,SBD,M
Boys,74.84,9,Taylor Young #4,Ore City,67.95,190.51,92.99,204.12,487.61,Single-ply,SBD,M
Boys,74.84,10,Jacorian Walker,Texarkana Texas,68.76,181.44,92.99,204.12,478.54,Single-ply,SBD,M
Boys,74.84,11,Kevin Jackson,Marshall,68.04,181.44,106.59,181.44,469.47,Single-ply,SBD,M
Boys,74.84,12,Jalon Michell,Marshall,74.66,172.37,92.99,195.04,460.4,Single-ply,SBD,M
Boys,74.84,13,Foxx Smith,Redwater,74.84,183.7,102.06,172.37,458.13,Single-ply,SBD,M
Boys,74.84,14,Justin Blugburn,Emory Rains,74.48,163.29,102.06,183.7,449.06,Single-ply,SBD,M
Boys,74.84,15,Hunter Standley,Redwater,74.12,158.76,97.52,185.97,442.25,Single-ply,SBD,M
Boys,74.84,16,Lakendrick Stanton,Hughes Springs,74.03,156.49,95.25,174.63,426.38,Single-ply,SBD,M
Boys,82.1,17,Brandon Jones #9,Nacogdoches,75.02,149.69,92.99,183.7,426.38,Single-ply,SBD,M
Boys,74.84,18,Carson Craytor,Texarkana Pleasant Grove,69.22,158.76,83.91,181.44,424.11,Single-ply,SBD,M
Boys,74.84,19,Darryl Polk,Gladewater,70.03,170.1,81.65,172.37,424.11,Single-ply,SBD,M
Boys,74.84,20,Brody Price,Jefferson,73.21,161.03,108.86,142.88,412.77,Single-ply,SBD,M
Boys,74.84,21,Reilly Triley,Hughes Springs,74.03,147.42,88.45,161.03,396.89,Single-ply,SBD,M
Boys,74.84,22,Dustin Harrison,White Oak,70.76,149.69,83.91,147.42,381.02,Single-ply,SBD,M
Boys,74.84,23,Taylor Lang,Elysian Fields,70.31,149.69,83.91,142.88,376.48,Single-ply,SBD,M
Boys,74.84,24,Hunter Delcambre,Nacogdoches,73.03,127.01,81.65,149.69,358.34,Single-ply,SBD,M
Boys,74.84,25,Matt McNamara,Gladewater,70.67,124.74,70.31,151.95,347,Single-ply,SBD,M
Boys,74.84,26,Morgan Breaux,Emory Rains,69.58,113.4,70.31,124.74,308.44,Single-ply,SBD,M
Boys,74.84,DQ,Malik Yulee,Gladewater,72.3,,,,,Single-ply,SBD,M
Boys,74.84,DQ,Jacoby Rhodes,Diana New Diana,73.48,,,,,Single-ply,SBD,M
Boys,74.84,DQ,Cason Fogle,Diana New Diana,73.84,,,,,Single-ply,SBD,M
Boys,74.84,DQ,Austin Calcote,Hughes Springs,69.22,,,,,Single-ply,SBD,M
Boys,82.1,1,Zach Holladay,Bullard,81.92,226.8,140.61,235.87,603.28,Single-ply,SBD,M
Boys,82.1,2,Gannon Brown,Emory Rains,80.47,195.04,149.69,219.99,564.72,Single-ply,SBD,M
Boys,82.1,3,Aaron Johnson #13,Bullard,81.19,226.8,115.67,215.46,557.92,Single-ply,SBD,M
Boys,82.1,4,Caleb Williams #2,Frankston,76.02,172.37,117.93,258.55,548.85,Single-ply,SBD,M
Boys,82.1,5,Houston Alexander,Bullard,76.57,199.58,133.81,210.92,544.31,Single-ply,SBD,M
Boys,82.1,6,Christian Darter,Emory Rains,76.66,190.51,127.01,208.65,526.17,Single-ply,SBD,M
Boys,82.1,7,Nolan Allen,Marshall,77.11,215.46,117.93,192.78,526.17,Single-ply,SBD,M
Boys,82.1,8,Deontae Thorton,Texarkana Liberty-Eylau,80.92,199.58,124.74,192.78,517.1,Single-ply,SBD,M
Boys,82.1,9,Ethan Jordan,Ore City,77.11,197.31,113.4,192.78,503.49,Single-ply,SBD,M
Boys,82.1,10,Felipe Amaro,Laird Hill Leveretts Chapel,81.37,217.72,113.4,170.1,501.22,Single-ply,SBD,M
Boys,82.1,11,Jacob Willige,Texarkana Pleasant Grove,81.19,170.1,133.81,170.1,474,Single-ply,SBD,M
Boys,82.1,12,Blake Narrell,Troup,75.21,172.37,106.59,181.44,460.4,Single-ply,SBD,M
Boys,82.1,13,Zhymell Bowie,Jefferson,77.47,147.42,122.47,176.9,446.79,Single-ply,SBD,M
Boys,82.1,14,Armando Cortes,Emory Rains,77.56,161.03,90.72,161.03,412.77,Single-ply,SBD,M
Boys,82.1,15,Dillon Jarvis,Gladewater Union Grove,79.74,147.42,99.79,154.22,401.43,Single-ply,SBD,M
Boys,82.1,16,Micah Brantley,Gladewater Union Grove,79.02,149.69,92.99,154.22,396.89,Single-ply,SBD,M
Boys,82.1,17,Hunter Hatfield,Texarkana Pleasant Grove,79.74,188.24,,190.51,378.75,Single-ply,SD,M
Boys,82.1,18,Kolton Turner,Gladewater Sabine,78.93,145.15,83.91,140.61,369.68,Single-ply,SBD,M
Boys,89.81,19,Blake Riddle,Redwater,82.33,131.54,86.18,145.15,362.87,Single-ply,SBD,M
Boys,82.1,20,Colton Finney,Redwater,75.39,120.2,72.57,145.15,337.93,Single-ply,SBD,M
Boys,89.81,21,Grant Russell,Emory Rains,82.28,192.78,124.74,,317.51,Single-ply,SB,M
Boys,82.1,22,Ryan Bradley,New Boston,78.2,113.4,54.43,122.47,290.3,Single-ply,SBD,M
Boys,82.1,23,Clint Sorrells,Gladewater,78.2,156.49,92.99,,249.48,Single-ply,SB,M
Boys,82.1,24,Tyler Nixon,White Oak,80.83,77.11,81.65,90.72,249.48,Single-ply,SBD,M
Boys,82.1,DQ,Herlin James,Texarkana Liberty-Eylau,76.57,,,,,Single-ply,SBD,M
Boys,82.1,DQ,Jeffery Osborne,Emory Rains,76.02,,,,,Single-ply,SBD,M
Boys,82.1,DQ,Alex Yancey,Overton,82.01,,,,,Single-ply,SBD,M
Boys,99.79,1,Collin Craytor,Texarkana Pleasant Grove,89.99,229.06,129.27,215.46,573.79,Single-ply,SBD,M
Boys,89.81,2,Harold Stoker,Texarkana Texas,89.18,213.19,124.74,213.19,551.11,Single-ply,SBD,M
Boys,89.81,3,Michael Martinez,Hughes Springs,87.54,208.65,140.61,199.58,548.85,Single-ply,SBD,M
Boys,89.81,4,Dakota Lynn,Longview Pine Tree,85.18,226.8,115.67,199.58,542.04,Single-ply,SBD,M
Boys,89.81,5,Chris Ferguson,Longview Pine Tree,89.63,204.12,124.74,201.85,530.7,Single-ply,SBD,M
Boys,89.81,6,Brandon Wesley,Diana New Diana,83.64,206.38,129.27,188.24,523.9,Single-ply,SBD,M
Boys,89.81,7,Colby Simmons,Elysian Fields,87.54,192.78,133.81,190.51,517.1,Single-ply,SBD,M
Boys,89.81,8,Dalton White,Redwater,85,185.97,115.67,204.12,505.76,Single-ply,SBD,M
Boys,89.81,9,Alberto Balderas,Marshall,89.72,199.58,108.86,188.24,496.68,Single-ply,SBD,M
Boys,89.81,10,Brett DeBaca,White Oak,89.81,190.51,124.74,181.44,496.68,Single-ply,SBD,M
Boys,89.81,11,Cody Brackeen,Gladewater,89.54,181.44,113.4,190.51,485.34,Single-ply,SBD,M
Boys,89.81,12,Cole Harwell,Hawkins,85.09,183.7,106.59,181.44,471.74,Single-ply,SBD,M
Boys,89.81,13,Ethan Molnari,Troup,87.54,181.44,102.06,167.83,451.32,Single-ply,SBD,M
Boys,89.81,14,Tucker Phillips,Bullard,85.37,161.03,99.79,172.37,433.18,Single-ply,SBD,M
Boys,89.81,15,Tony Burns,Mount Enterprise,85.37,163.29,106.59,158.76,428.64,Single-ply,SBD,M
Boys,89.81,16,Preston White,Diana New Diana,89.09,149.69,74.84,149.69,374.21,Single-ply,SBD,M
Boys,89.81,17,Chris Dells,Diana New Diana,87.82,140.61,81.65,149.69,371.95,Single-ply,SBD,M
Boys,99.79,1,William Wayne,Texarkana Liberty-Eylau,99.79,226.8,145.15,231.33,603.28,Single-ply,SBD,M
Boys,99.79,2,Tad Clark,Diana New Diana,99.79,210.92,133.81,215.46,560.19,Single-ply,SBD,M
Boys,99.79,3,Jeremy Cain,Redwater,93.53,188.24,145.15,215.46,548.85,Single-ply,SBD,M
Boys,99.79,4,Austin Cruz,Cushing,96.98,195.04,111.13,231.33,537.51,Single-ply,SBD,M
Boys,109.77,5,Zach Verhalen,Nacogdoches,99.88,188.24,127.01,219.99,535.24,Single-ply,SBD,M
Boys,99.79,6,Colton Defur,Hawkins,94.08,206.38,113.4,190.51,510.29,Single-ply,SBD,M
Boys,99.79,7,Alex Silva,Marshall,98.52,192.78,102.06,197.31,492.15,Single-ply,SBD,M
Boys,99.79,8,Brandon Gann,Gladewater Sabine,98.52,183.7,108.86,188.24,480.81,Single-ply,SBD,M
Boys,99.79,9,Garrett Harvey,Carthage,99.79,188.24,117.93,172.37,478.54,Single-ply,SBD,M
Boys,99.79,10,Zac Willeford,Nacogdoches,95.53,188.24,95.25,190.51,474,Single-ply,SBD,M
Boys,99.79,11,Keelan Munoz,White Oak,91.44,188.24,90.72,181.44,460.4,Single-ply,SBD,M
Boys,99.79,12,Grant Stansberry,Gladewater Sabine,90.17,172.37,108.86,172.37,453.59,Single-ply,SBD,M
Boys,99.79,13,Cory Sturrock,Gladewater Union Grove,91.72,170.1,90.72,192.78,453.59,Single-ply,SBD,M
Boys,99.79,14,Keith Baldwin,New Boston,94.17,172.37,102.06,165.56,439.98,Single-ply,SBD,M
Boys,99.79,15,Reese Mathews,Elysian Fields,91.08,154.22,102.06,170.1,426.38,Single-ply,SBD,M
Boys,109.77,16,William Reynolds,Diana New Diana,99.97,156.49,79.38,174.63,410.5,Single-ply,SBD,M
Boys,99.79,17,Matthew Sellers,Texarkana Liberty-Eylau,93.08,260.82,136.08,,396.89,Single-ply,SB,M
Boys,99.79,18,Caden Beavis,White Oak,97.89,129.27,70.31,129.27,328.85,Single-ply,SBD,M
Boys,99.79,19,Josh Whitworth,Gladewater Sabine,96.98,90.72,49.9,104.33,244.94,Single-ply,SBD,M
Boys,99.79,20,Luke Rice,Elysian Fields,91.63,108.86,79.38,,188.24,Single-ply,SB,M
Boys,99.79,DQ,Dorian Schutt,Bullard,98.52,,,,,Single-ply,SB,M
Boys,99.79,DQ,Christian Smith,Hughes Springs,95.25,,,,,Single-ply,SB,M
Boys,99.79,DQ,Corey Lowe,Texarkana Texas,93.8,,,,,Single-ply,SB,M
Boys,109.77,1,Morocco Arnold,Texarkana Liberty-Eylau,108.14,297.1,170.1,288.03,755.23,Single-ply,SBD,M
Boys,109.77,2,Neco Smith,Texarkana Pleasant Grove,100.33,240.4,147.42,213.19,601.01,Single-ply,SBD,M
Boys,109.77,3,Bryce Stephens,Ore City,101.06,215.46,124.74,204.12,544.31,Single-ply,SBD,M
Boys,109.77,4,Kris Layman,White Oak,108.68,226.8,117.93,192.78,537.51,Single-ply,SBD,M
Boys,109.77,5,Cade Clinton,Carthage,101.97,172.37,131.54,217.72,521.63,Single-ply,SBD,M
Boys,109.77,6,Antonio Washinton,Marshall,100.97,208.65,102.06,208.65,519.36,Single-ply,SBD,M
Boys,109.77,7,Thorn Berry,Gladewater,109.41,176.9,120.2,181.44,478.54,Single-ply,SBD,M
Boys,124.74,8,Branton Halcomb,Carthage,109.86,181.44,129.27,165.56,476.27,Single-ply,SBD,M
Boys,109.77,9,Zeke Espinoza,Gladewater,106.68,170.1,92.99,188.24,451.32,Single-ply,SBD,M
Boys,109.77,10,Brandon Galindo,Elysian Fields,102.33,181.44,104.33,158.76,444.52,Single-ply,SBD,M
Boys,109.77,11,Brandon Carlson,Carthage,104.33,151.95,83.91,158.76,394.63,Single-ply,SBD,M
Boys,109.77,12,Joey Gray,Troup,107.05,156.49,79.38,140.61,376.48,Single-ply,SBD,M
Boys,109.77,13,Mack Boyd,New Boston,103.69,129.27,58.97,145.15,333.39,Single-ply,SBD,M
Boys,109.77,DQ,Trevor Zaunbrecher,New Boston,108.41,,,,,Single-ply,SBD,M
Boys,109.77,DQ,Trevor Perry,Hughes Springs,107.86,,,,,Single-ply,SBD,M
Boys,109.77,DQ,Dalton Benson,Celeste,109.77,,,,,Single-ply,SBD,M
Boys,109.77,DQ,Caleb Hallford,Bullard,105.96,,,,,Single-ply,SBD,M
Boys,124.74,1,Reggie Scales,New Boston,110.59,303.91,210.92,242.67,757.5,Single-ply,SBD,M
Boys,124.74,2,Drew Davis,Texarkana Pleasant Grove,117.66,249.48,154.22,224.53,628.23,Single-ply,SBD,M
Boys,124.74,3,William Mitchell,Longview Pine Tree,113.58,249.48,136.08,213.19,598.74,Single-ply,SBD,M
Boys,124.74,4,Katrail Flanagan,Marshall,115.94,219.99,129.27,204.12,553.38,Single-ply,SBD,M
Boys,124.74,5,Cody Bryce,Nacogdoches,122.92,226.8,108.86,204.12,539.77,Single-ply,SBD,M
Boys,124.74,6,Landon Templin,Jefferson,117.39,215.46,136.08,174.63,526.17,Single-ply,SBD,M
Boys,124.74,7,Issac Espinoza,Gladewater,116.3,215.46,92.99,199.58,508.02,Single-ply,SBD,M
Boys,124.74,8,Brandon Clements,New Boston,124.56,199.58,106.59,195.04,501.22,Single-ply,SBD,M
Boys,124.74,9,Lyle Owens,White Oak,118.84,192.78,127.01,170.1,489.88,Single-ply,SBD,M
Boys,124.74,10,Kesley Geurin,Diana New Diana,117.3,190.51,108.86,188.24,487.61,Single-ply,SBD,M
Boys,124.74,11,Noah Palmertree,Hughes Springs,115.21,197.31,99.79,181.44,478.54,Single-ply,SBD,M
Boys,124.74,12,Chase Gardner,Gladewater,118.21,181.44,97.52,185.97,464.93,Single-ply,SBD,M
Boys,124.74,13,Dre Tennison,Gladewater,110.68,170.1,108.86,181.44,460.4,Single-ply,SBD,M
Boys,124.74,DQ,Luke Hooten,Emory Rains,110.4,,,,,Single-ply,SBD,M
Boys,124.74,DQ,Tim Meyers,Nacogdoches,113.4,,,,,Single-ply,SBD,M
Boys,124.74,DQ,Tristen Walsworth,Troup,112.13,,,,,Single-ply,SBD,M
Boys,124.74+,1,Chris Paul,Texarkana Liberty-Eylau,129.09,272.16,174.63,244.94,691.73,Single-ply,SBD,M
Boys,124.74+,2,Kyre Lewis,Hughes Springs,139.98,249.48,154.22,229.06,632.76,Single-ply,SBD,M
Boys,124.74+,3,Trey Villarreal,Diana New Diana,142.43,215.46,147.42,249.48,612.35,Single-ply,SBD,M
Boys,124.74+,4,Cameron Jones,Texarkana Liberty-Eylau,177.9,249.48,127.01,229.06,605.55,Single-ply,SBD,M
Boys,124.74+,5,Wesley Holmes,New Boston,144.33,238.14,129.27,208.65,576.06,Single-ply,SBD,M
Boys,124.74+,6,Jordan LaBrie,Texarkana Pleasant Grove,132.54,231.33,136.08,197.31,564.72,Single-ply,SBD,M
Boys,124.74+,7,Dacota Brooks,Marshall,140.34,235.87,127.01,199.58,562.45,Single-ply,SBD,M
Boys,124.74+,8,Hunter Coleman,Elysian Fields,148.78,219.99,145.15,190.51,555.65,Single-ply,SBD,M
Boys,124.74+,9,Justin Stadfield,Gladewater,139.71,197.31,140.61,206.38,544.31,Single-ply,SBD,M
Boys,124.74+,10,Cedric Jones,Marshall,142.43,199.58,108.86,176.9,485.34,Single-ply,SBD,M
Boys,124.74+,11,Ryan Cox,Jefferson,134.81,165.56,115.67,181.44,462.66,Single-ply,SBD,M
Boys,124.74+,12,Brandon Barber #2,Elysian Fields,166.47,195.04,102.06,163.29,460.4,Single-ply,SBD,M
Boys,124.74+,DQ,Willie Evans,Daingerfield,172.37,,,,,Single-ply,SBD,M
Boys,124.74+,DQ,Jaylon White,Troup,198.67,,,,,Single-ply,SBD,M
