Place,Name,Sex,BirthDate,Age,State,Equipment,Division,BodyweightKg,WeightClassKg,Squat1Kg,Squat2Kg,Squat3Kg,Best3SquatKg,Bench1Kg,Bench2Kg,Bench3Kg,Best3BenchKg,Deadlift1Kg,Deadlift2Kg,Deadlift3Kg,Best3DeadliftKg,TotalKg,Event
1,Jaay Han,F,1994-02-26,27,CA,Raw,Open,66.6,67.5,-135,145,-150,145,85,92.5,95,95,170,-180,187.5,187.5,427.5,SBD
2,Meranda Erece,F,1995-04-27,26,CA,Raw,Open,67.4,67.5,120,127.5,132.5,132.5,77.5,-82.5,-82.5,77.5,127.5,137.5,-147.5,137.5,347.5,SBD
DQ,Rhonda Johnson,F,1987-04-20,34,CA,Raw,Open,69.7,75,-82.5,-87.5,-87.5,,40,45,-50,45,102.5,110,-125,110,,SBD
1,Norma Ferriola,F,1986-06-29,35,CA,Raw,Open,81.1,82.5,-92.5,-97.5,97.5,97.5,47.5,50,-55,50,102.5,105,112.5,112.5,260,SBD
1,Bridget Sikorski,F,1989-02-15,32,CA,Raw,Open,87.7,90,152.5,155,162.5,162.5,75,-77.5,-77.5,75,142.5,155,170,170,407.5,SBD
2,Elizabeth Sypole,F,1985-04-18,36,CA,Raw,Open,83.5,90,115,120,127.5,127.5,60,62.5,-67.5,62.5,115,125,-137.5,125,315,SBD
1,Esmeralda Doyle,F,1985-07-16,36,CA,Wraps,Open,55,56,150,165,-172.5,165,62.5,-67.5,67.5,67.5,142.5,155,160,160,392.5,SBD
1,Marilyn Yee,F,,30,CA,Wraps,Open,73.2,75,100,120,-140,120,75,80,90,90,130,150,180,180,390,SBD
1,Gabby Rodriguez,F,2002-07-02,19,CA,Raw,Open,56.8,60,,,,,52.5,57.5,-60,57.5,120,130,-140,130,187.5,BD
1,Manuel Chagolla,M,1993-02-16,28,CA,Raw,Open,72.9,75,220,230,240,240,145,155,,155,272.5,285,292.5,292.5,687.5,SBD
2,Andres Munguia Rubio,M,2000-07-05,21,CA,Raw,Open,72,75,195,212.5,-230,212.5,102.5,110,-120,110,247.5,-270,-270,247.5,570,SBD
3,Denny Sou,M,1985-04-21,36,CA,Raw,Open,73.2,75,160,170,175,175,135,-142.5,,135,215,227.5,-240,227.5,537.5,SBD
4,Alejandro Valenzuela,M,1997-10-15,23,CA,Raw,Open,75,75,-150,150,160,160,105,107.5,-115,107.5,215,220,-227.5,220,487.5,SBD
DQ,Anthony Ciallella,M,2004-01-17,17,CA,Raw,Open,72.7,75,-152.5,-160,162.5,162.5,-100,-100,-100,,195,205,215,215,,SBD
1,Joshua Zaragoza,M,,27,CA,Raw,Open,79,82.5,165,175,185,185,-115,120,127.5,127.5,220,237.5,-240,237.5,550,SBD
2,Jonah Breslow,M,1994-12-10,26,CA,Raw,Open,81.4,82.5,167.5,180,185,185,117.5,-130,-130,117.5,185,205,-227.5,205,507.5,SBD
3,Esteban Flores,M,1996-12-08,24,CA,Raw,Open,81.4,82.5,115,130,145,145,70,87.5,-92.5,87.5,142.5,162.5,185,185,417.5,SBD
1,Alexander Minnis,M,1994-11-14,26,CA,Raw,Open,88.8,90,210,222.5,-225,222.5,140,145,147.5,147.5,292.5,-302.5,,292.5,662.5,SBD
2,Kory Mozee,M,1981-06-11,40,CA,Raw,Open,88.2,90,195,215,-227.5,215,135,-142.5,,135,240,250,-265,250,600,SBD
3,Jesus Jaquez,M,1998-09-14,23,CA,Raw,Open,86.4,90,172.5,187.5,-200,187.5,132.5,142.5,145,145,217.5,230,242.5,242.5,575,SBD
1,Shaye Alpha,M,1996-05-21,25,CA,Raw,Open,98.4,100,215,237.5,247.5,247.5,142.5,157.5,165,165,257.5,272.5,280,280,692.5,SBD
2,Brandon Arnold,M,1997-04-01,24,CA,Raw,Open,99.1,100,220,235,252.5,252.5,142.5,152.5,,152.5,255,270,282.5,282.5,687.5,SBD
3,Roger Klauser,M,,25,CA,Raw,Open,98.7,100,205,217.5,227.5,227.5,152.5,160,-165,160,232.5,250,260,260,647.5,SBD
4,Brandon Wright,M,1995-07-25,26,CA,Raw,Open,95,100,212.5,220,230,230,165,-175,-182.5,165,245,,,245,640,SBD
5,George Navarro,M,2000-07-20,21,CA,Raw,Open,98.9,100,190,197.5,205,205,127.5,140,-147.5,140,225,242.5,252.5,252.5,597.5,SBD
6,Frank Pedraza,M,2000-07-25,21,CA,Raw,Open,95.3,100,185,190,-195,190,-125,125,,125,235,242.5,-255,242.5,557.5,SBD
7,Daniel Ramirez,M,2000-07-16,21,CA,Raw,Open,98,100,155,167.5,182.5,182.5,-120,130,137.5,137.5,182.5,207.5,227.5,227.5,547.5,SBD
8,Gabriel Sage,M,1999-04-26,22,CA,Raw,Open,96.9,100,175,185,197.5,197.5,-107.5,107.5,-120,107.5,202.5,215,222.5,222.5,527.5,SBD
9,Elias Zaragoza,M,1995-01-09,26,CA,Raw,Open,98,100,170,187.5,192.5,192.5,-102.5,107.5,-117.5,107.5,185,195,215,215,515,SBD
10,Oscar Vazquez,M,1988-06-11,33,CA,Raw,Open,92.3,100,135,145,155,155,-107.5,117.5,125,125,182.5,205,227.5,227.5,507.5,SBD
11,Juan Romero,M,,22,CA,Raw,Open,98.2,100,145,160,170,170,97.5,107.5,-110,107.5,200,215,230,230,507.5,SBD
DQ,Shneur Shapiro,M,1987-09-24,34,CA,Raw,Open,93,100,170,182.5,192.5,192.5,-130,-130,-130,,170,187.5,207.5,207.5,,SBD
1,Adrian Santos,M,1995-03-16,26,CA,Raw,Open,108.6,110,210,220,227.5,227.5,142.5,147.5,,147.5,250,260,-270,260,635,SBD
1,Michael Salcedo,M,2002-06-15,19,CA,Raw,Open,137.9,140,225,235,-240,235,155,167.5,-175,167.5,210,225,-232.5,225,627.5,SBD
1,Kyle Bilharz,M,1990-03-01,31,CA,Wraps,Open,97.1,100,265,277.5,285,285,157.5,167.5,175,175,282.5,300,-305,300,760,SBD
1,Adam Garcia #1,M,1992-03-16,29,CA,Wraps,Open,108.8,110,280,305,315,315,210,220,-230,220,315,345,-365,345,880,SBD
2,Domingo Avalos,M,1994-08-10,27,CA,Wraps,Open,105.1,110,280,287.5,,287.5,185,190,195,195,272.5,292.5,302.5,302.5,785,SBD
1,Codie Rynearson,M,1992-12-04,28,CA,Wraps,Open,123.4,125,290,310,-327.5,310,165,175,-185,175,310,322.5,,322.5,807.5,SBD
DQ,John Dorsten,M,1969-06-12,52,CA,Single-ply,Open,80.4,82.5,250,265,280,280,-172.5,-172.5,,,,,,,,SBD
1,Daniel Martin #1,M,1990-06-24,31,CA,Raw,Open,114.1,125,,,,,225,-245,-245,225,,,,,225,B
2,David Bernardi,M,1983-02-28,38,CA,Raw,Open,111,125,,,,,182.5,195,-200,195,,,,,195,B
1,Zach Wittusen,M,1991-07-30,30,CA,Raw,Open,121.6,125,,,,,217.5,-230,-230,217.5,,,,,217.5,B
1,Daniel Martin #1,M,1990-06-24,31,CA,Raw,Open,114.1,125,,,,,,,,,307.5,330,-335,330,330,D
