Name,WeightClassKg,Division,Sex,Best3SquatKg,Best3BenchKg,Best3DeadliftKg,TotalKg,Event,Equipment,Place
T. Cummins,52,Open,M,127.01,52.16,113.4,292.57,SBD,Single-ply,G
S. Patti,56,Open,F,92.99,49.9,111.13,254.01,SBD,Single-ply,1
Mike Cross #1,60,Open,M,174.63,102.06,244.94,521.63,SBD,Single-ply,1
Paul Wrenn Jr,60,Novice,M,74.84,38.56,88.45,201.85,SBD,Single-ply,1
Mike Shackleford,67.5,Open,M,185.97,149.69,158.76,494.42,SBD,Single-ply,1
Robin Newell,67.5,Open,F,140.61,63.5,167.83,371.95,SBD,Single-ply,2
L. Frerichs,67.5,Open,F,90.72,54.43,111.13,256.28,SBD,Single-ply,3
Jerry Amonette,67.5,Novice,M,165.56,102.06,179.17,446.79,SBD,Single-ply,2
B. Snell,67.5,Novice,M,147.42,92.99,163.29,403.7,SBD,Single-ply,3
Terry Naillon,67.5,Novice,M,124.74,104.33,154.22,383.29,SBD,Single-ply,4
D. Johnson,67.5,Novice,M,142.88,68.04,142.88,353.8,SBD,Single-ply,5
P. Bumbalaugh,67.5,Novice,F,90.72,63.5,133.81,288.03,SBD,Single-ply,6
M. Rhodes,67.5,Novice,M,185.97,117.93,199.58,503.49,SBD,Single-ply,G
Rickey Posey,75,Open,M,254.01,154.22,267.62,675.85,SBD,Single-ply,1
Mary Hensley,75,Open,F,108.86,54.43,131.54,294.84,SBD,Single-ply,2
Leesa Blakley,75,Open,F,124.74,54.43,113.4,292.57,SBD,Single-ply,3
Bill Smith,75,Novice,M,208.65,129.27,215.46,553.38,SBD,Single-ply,1
Don Smith,75,Novice,M,188.24,151.95,199.58,539.78,SBD,Single-ply,2
D. Hill,75,Novice,M,183.71,115.67,231.33,530.7,SBD,Single-ply,3
J. Burnett,75,Novice,M,192.78,127.01,208.65,528.44,SBD,Single-ply,4
Jim Steppan,75,Novice,M,163.29,97.52,219.99,480.81,SBD,Single-ply,5
Don Jenkins,75,Novice,M,147.42,131.54,192.78,471.74,SBD,Single-ply,6
G. Moss,75,Novice,M,170.1,124.74,170.1,464.93,SBD,Single-ply,7
J. Saunders,75,Novice,M,161.03,122.47,167.83,451.32,SBD,Single-ply,8
J. Waters,75,Novice,M,145.15,124.74,170.1,439.99,SBD,Single-ply,9
Tim Williams,75,Novice,M,133.81,124.74,170.1,428.65,SBD,Single-ply,10
R. Stiles,75,Novice,M,111.13,124.74,149.69,385.55,SBD,Single-ply,11
James Hood #1,82.5,Open,M,254.01,197.31,283.5,734.82,SBD,Single-ply,1
Troy Hicks,82.5,Open,M,276.69,136.08,294.84,707.6,SBD,Single-ply,2
J. Conners,82.5,Open,M,242.67,156.49,272.16,671.32,SBD,Single-ply,3
L. Harris,82.5,Open,M,238.14,151.95,238.14,628.23,SBD,Single-ply,4
J. Anderson,82.5,Novice,M,204.12,140.61,249.48,594.21,SBD,Single-ply,1
Larry Smith,82.5,Novice,M,204.12,129.27,231.33,564.72,SBD,Single-ply,2
Joe Fielden,82.5,Novice,M,181.44,147.42,210.92,539.78,SBD,Single-ply,3
R. Whedbee,82.5,Novice,M,195.04,142.88,201.85,539.78,SBD,Single-ply,4
G. Abrams,82.5,Novice,M,172.37,136.08,219.99,528.44,SBD,Single-ply,5
Donna Duncan,82.5,Novice,F,165.56,61.24,174.63,401.43,SBD,Single-ply,6
M. Jones,82.5,Novice,M,240.4,115.67,235.87,591.94,SBD,Single-ply,G
Dale Matherly,82.5,Novice,M,229.06,122.47,217.72,569.26,SBD,Single-ply,G
Joe Cummins,90,Open,M,303.91,188.24,283.5,775.64,SBD,Single-ply,1
Lonnie Hood,90,Open,M,258.55,213.19,285.76,757.5,SBD,Single-ply,2
Tim King,90,Open,M,238.14,154.22,192.78,585.13,SBD,Single-ply,3
Charles Siler,90,Novice,M,281.23,192.78,249.48,723.48,SBD,Single-ply,1
Bob Harvey,90,Novice,M,258.55,158.76,274.42,691.73,SBD,Single-ply,2
R. Baker,90,Novice,M,244.94,197.31,226.8,669.05,SBD,Single-ply,3
W. Ray,90,Novice,M,217.72,158.76,247.21,623.69,SBD,Single-ply,4
Amy Wrenn,90,Novice,F,106.59,52.16,124.74,283.5,SBD,Single-ply,5
R. Ledford,90,Novice,M,192.78,,,,SBD,Single-ply,DQ
Ted Rapp,100,Open,M,294.84,172.37,303.91,771.11,SBD,Single-ply,1
Darrell Latch,100,Open,M,231.33,142.88,244.94,619.15,SBD,Single-ply,2
M. Adams,100,Open,M,215.46,147.42,249.48,612.35,SBD,Single-ply,3
Brett Harper,100,Novice,M,258.55,167.83,247.21,673.59,SBD,Single-ply,1
Brent Huskey,100,Novice,M,238.14,161.03,260.82,659.98,SBD,Single-ply,2
Wade Trail,100,Novice,M,233.6,165.56,213.19,612.35,SBD,Single-ply,3
Bill Bryant,100,Novice,M,233.6,142.88,226.8,603.28,SBD,Single-ply,4
Bruce Ruttenbur,100,Novice,M,149.69,122.47,174.63,446.79,SBD,Single-ply,5
C. Vaughn,100,Novice,M,136.08,117.93,181.44,435.45,SBD,Single-ply,6
Johnny Langston,110,Open,M,328.85,215.46,312.98,857.29,SBD,Single-ply,1
S. Bradley,110,Open,M,274.42,176.9,254.01,705.34,SBD,Single-ply,2
Jim Tidmore,110,Open,M,254.01,154.22,254.01,662.25,SBD,Single-ply,3
Greg Morris,110,Novice,M,249.48,142.88,272.16,664.51,SBD,Single-ply,1
J. Shofner,110,Novice,M,215.46,142.88,242.67,601.01,SBD,Single-ply,2
Chris Grey,110,Novice,M,204.12,158.76,238.14,601.01,SBD,Single-ply,3
N. Haynes,110,Novice,M,240.4,170.1,,,SBD,Single-ply,DQ
Dave Green,125,Open,M,331.12,204.12,299.37,834.61,SBD,Single-ply,1
Dan Reagan,125,Open,M,290.3,204.12,283.5,777.91,SBD,Single-ply,2
Craig Robery,125,Novice,M,254.01,147.42,285.76,687.19,SBD,Single-ply,1
Paul Wrenn,125+,Open,M,410.5,226.8,335.66,972.96,SBD,Single-ply,1
Carl Stiles,125+,Open,M,249.48,204.12,283.5,737.09,SBD,Single-ply,2
Gary Davis #1,125+,Novice,M,272.16,176.9,276.69,725.75,SBD,Single-ply,1
